  0
SECTION
  2
HEADER
  9
$ACADVER
  1
AC1009
  9
$DWGCODEPAGE
  3
ansi_1251
  9
$INSBASE
 10
0.0
 20
0.0
 30
0.0
  9
$EXTMIN
 10
34.053187
 20
114.760621
 30
0.0
  9
$EXTMAX
 10
374.516697
 20
235.891101
 30
0.0
  9
$LIMMIN
 10
0.0
 20
0.0
  9
$LIMMAX
 10
12.0
 20
9.0
  9
$ORTHOMODE
 70
     0
  9
$REGENMODE
 70
     1
  9
$FILLMODE
 70
     1
  9
$QTEXTMODE
 70
     0
  9
$MIRRTEXT
 70
     1
  9
$DRAGMODE
 70
     2
  9
$LTSCALE
 40
1.0
  9
$OSMODE
 70
    37
  9
$ATTMODE
 70
     1
  9
$TEXTSIZE
 40
250.0
  9
$TRACEWID
 40
0.05
  9
$TEXTSTYLE
  7
STANDARD
  9
$CLAYER
  8
0
  9
$CELTYPE
  6
BYBLOCK
  9
$CECOLOR
 62
   256
  9
$DIMSCALE
 40
100.0
  9
$DIMASZ
 40
0.18
  9
$DIMEXO
 40
0.0625
  9
$DIMDLI
 40
0.38
  9
$DIMRND
 40
0.0
  9
$DIMDLE
 40
0.0
  9
$DIMEXE
 40
0.18
  9
$DIMTP
 40
0.0
  9
$DIMTM
 40
0.0
  9
$DIMTXT
 40
0.18
  9
$DIMCEN
 40
0.09
  9
$DIMTSZ
 40
0.0
  9
$DIMTOL
 70
     0
  9
$DIMLIM
 70
     0
  9
$DIMTIH
 70
     1
  9
$DIMTOH
 70
     1
  9
$DIMSE1
 70
     0
  9
$DIMSE2
 70
     0
  9
$DIMTAD
 70
     0
  9
$DIMZIN
 70
     0
  9
$DIMBLK
  1

  9
$DIMASO
 70
     1
  9
$DIMSHO
 70
     1
  9
$DIMPOST
  1

  9
$DIMAPOST
  1

  9
$DIMALT
 70
     0
  9
$DIMALTD
 70
     2
  9
$DIMALTF
 40
25.4
  9
$DIMLFAC
 40
1.0
  9
$DIMTOFL
 70
     0
  9
$DIMTVP
 40
0.0
  9
$DIMTIX
 70
     0
  9
$DIMSOXD
 70
     0
  9
$DIMSAH
 70
     0
  9
$DIMBLK1
  1

  9
$DIMBLK2
  1

  9
$DIMSTYLE
  2
STANDARD
  9
$DIMCLRD
 70
     0
  9
$DIMCLRE
 70
     0
  9
$DIMCLRT
 70
     0
  9
$DIMTFAC
 40
1.0
  9
$DIMGAP
 40
0.09
  9
$LUNITS
 70
     2
  9
$LUPREC
 70
     4
  9
$SKETCHINC
 40
0.1
  9
$FILLETRAD
 40
0.5
  9
$AUNITS
 70
     0
  9
$AUPREC
 70
     0
  9
$MENU
  1
.
  9
$ELEVATION
 40
0.0
  9
$PELEVATION
 40
0.0
  9
$THICKNESS
 40
0.0
  9
$LIMCHECK
 70
     0
  9
$CHAMFERA
 40
0.0
  9
$CHAMFERB
 40
0.0
  9
$SKPOLY
 70
     0
  9
$TDCREATE
 40
2459492.740036262
  9
$TDUPDATE
 40
2459492.758415012
  9
$TDINDWG
 40
0.0000000116
  9
$TDUSRTIMER
 40
0.0000000116
  9
$USRTIMER
 70
     1
  9
$ANGBASE
 50
0.0
  9
$ANGDIR
 70
     0
  9
$PDMODE
 70
     0
  9
$PDSIZE
 40
0.0
  9
$PLINEWID
 40
0.0
  9
$COORDS
 70
     1
  9
$SPLFRAME
 70
     0
  9
$SPLINETYPE
 70
     6
  9
$SPLINESEGS
 70
     8
  9
$ATTDIA
 70
     0
  9
$ATTREQ
 70
     1
  9
$HANDLING
 70
     1
  9
$HANDSEED
  5
2A8
  9
$SURFTAB1
 70
     6
  9
$SURFTAB2
 70
     6
  9
$SURFTYPE
 70
     6
  9
$SURFU
 70
     6
  9
$SURFV
 70
     6
  9
$UCSNAME
  2

  9
$UCSORG
 10
0.0
 20
0.0
 30
0.0
  9
$UCSXDIR
 10
1.0
 20
0.0
 30
0.0
  9
$UCSYDIR
 10
0.0
 20
1.0
 30
0.0
  9
$PUCSNAME
  2

  9
$PUCSORG
 10
0.0
 20
0.0
 30
0.0
  9
$PUCSXDIR
 10
1.0
 20
0.0
 30
0.0
  9
$PUCSYDIR
 10
0.0
 20
1.0
 30
0.0
  9
$USERI1
 70
     0
  9
$USERI2
 70
     0
  9
$USERI3
 70
     0
  9
$USERI4
 70
     0
  9
$USERI5
 70
     0
  9
$USERR1
 40
0.0
  9
$USERR2
 40
0.0
  9
$USERR3
 40
0.0
  9
$USERR4
 40
0.0
  9
$USERR5
 40
0.0
  9
$WORLDVIEW
 70
     1
  9
$SHADEDGE
 70
     3
  9
$SHADEDIF
 70
    70
  9
$TILEMODE
 70
     1
  9
$MAXACTVP
 70
    64
  9
$PLIMCHECK
 70
     0
  9
$PEXTMIN
 10
1.000000E+20
 20
1.000000E+20
 30
1.000000E+20
  9
$PEXTMAX
 10
-1.000000E+20
 20
-1.000000E+20
 30
-1.000000E+20
  9
$PLIMMIN
 10
0.0
 20
0.0
  9
$PLIMMAX
 10
12.0
 20
9.0
  9
$UNITMODE
 70
     0
  9
$VISRETAIN
 70
     1
  9
$PLINEGEN
 70
     0
  9
$PSLTSCALE
 70
     0
  0
ENDSEC
  0
SECTION
  2
TABLES
  0
TABLE
  2
VPORT
 70
     1
  0
VPORT
  2
*ACTIVE
 70
     0
 10
0.0
 20
0.0
 11
1.0
 21
1.0
 12
324.412661
 22
196.162175
 13
0.0
 23
0.0
 14
0.5
 24
0.5
 15
0.5
 25
0.5
 16
0.0
 26
0.0
 36
1.0
 17
0.0
 27
0.0
 37
0.0
 40
598.874948
 41
1.997863
 42
50.0
 43
0.0
 44
0.0
 50
0.0
 51
0.0
 71
    16
 72
   100
 73
     1
 74
     3
 75
     0
 76
     0
 77
     0
 78
     0
  0
ENDTAB
  0
TABLE
  2
LTYPE
 70
     1
  0
LTYPE
  2
CONTINUOUS
 70
     0
  3
Solid line
 72
    65
 73
     0
 40
0.0
  0
ENDTAB
  0
TABLE
  2
LAYER
 70
     2
  0
LAYER
  2
0
 70
     0
 62
     7
  6
CONTINUOUS
  0
LAYER
  2
____________
 70
     0
 62
     4
  6
CONTINUOUS
  0
ENDTAB
  0
TABLE
  2
STYLE
 70
     1
  0
STYLE
  2
STANDARD
 70
     0
 40
0.0
 41
1.0
 50
0.0
 71
     0
 42
250.0
  3
txt
  4

  0
ENDTAB
  0
TABLE
  2
VIEW
 70
     0
  0
ENDTAB
  0
TABLE
  2
UCS
 70
     0
  0
ENDTAB
  0
TABLE
  2
APPID
 70
     6
  0
APPID
  2
ACAD
 70
     0
  0
APPID
  2
MCS_DIM1
 70
     0
  0
APPID
  2
MCSXDATA5
 70
     0
  0
APPID
  2
MCS_DOCUMENT_ID
 70
     0
  0
APPID
  2
MC_VERSION_DATA
 70
     0
  0
APPID
  2
MCS_PARAMS_DATA
 70
     0
  0
ENDTAB
  0
TABLE
  2
DIMSTYLE
 70
     1
  0
DIMSTYLE
  2
STANDARD
 70
     0
  3

  4

  5

  6

  7

 40
1.0
 41
0.18
 42
0.0625
 43
0.38
 44
0.18
 45
0.0
 46
0.0
 47
0.0
 48
0.0
140
0.18
141
0.09
142
0.0
143
25.4
144
1.0
145
0.0
146
1.0
147
0.09
 71
     0
 72
     0
 73
     1
 74
     1
 75
     0
 76
     0
 77
     0
 78
     0
170
     0
171
     2
172
     0
173
     0
174
     0
175
     0
176
     0
177
     0
178
     0
  0
ENDTAB
  0
ENDSEC
  0
SECTION
  2
BLOCKS
  0
BLOCK
  8
0
  2
$MODEL_SPACE
 70
     0
 10
0.0
 20
0.0
 30
0.0
  3
$MODEL_SPACE
  1

  0
ENDBLK
  5
17C
  8
0
  0
BLOCK
 67
     1
  8
0
  2
$PAPER_SPACE
 70
     0
 10
0.0
 20
0.0
 30
0.0
  3
$PAPER_SPACE
  1

  0
ENDBLK
  5
17E
 67
     1
  8
0
  0
ENDSEC
  0
SECTION
  2
ENTITIES
  0
CIRCLE
  5
22
  8
____________
 10
106.853
 20
141.299
 30
0.0
 40
6.848337
  0
CIRCLE
  5
23
  8
____________
 10
106.853
 20
141.299
 30
0.0
 40
13.437082
  0
CIRCLE
  5
24
  8
____________
 10
106.853
 20
141.299
 30
0.0
 40
26.538379
  0
CIRCLE
  5
25
  8
____________
 10
328.137931
 20
141.869318
 30
0.0
 40
6.848337
  0
CIRCLE
  5
26
  8
____________
 10
328.137931
 20
141.869318
 30
0.0
 40
13.437082
  0
CIRCLE
  5
27
  8
____________
 10
328.137931
 20
141.869318
 30
0.0
 40
26.538379
  0
POLYLINE
  5
28
  8
____________
 66
     1
 10
0.0
 20
0.0
 30
0.0
  0
VERTEX
  5
1B5
  8
____________
 10
83.531805
 20
153.964206
 30
0.0
 42
0.16861
  0
VERTEX
  5
1B6
  8
____________
 10
74.882445
 20
152.631818
 30
0.0
  0
VERTEX
  5
1B7
  8
____________
 10
75.534483
 20
159.908736
 30
0.0
  0
VERTEX
  5
1B8
  8
____________
 10
77.144201
 20
166.166477
 30
0.0
  0
VERTEX
  5
1B9
  8
____________
 10
78.570533
 20
169.631676
 30
0.0
  0
SEQEND
  5
26B
  8
____________
  0
POLYLINE
  5
2F
  8
____________
 66
     1
 10
0.0
 20
0.0
 30
0.0
  0
VERTEX
  5
1BA
  8
____________
 10
78.570533
 20
169.631676
 30
0.0
 42
-0.284605
  0
VERTEX
  5
1BB
  8
____________
 10
88.473354
 20
176.847443
 30
0.0
  0
VERTEX
  5
1BC
  8
____________
 10
115.492163
 20
176.643608
 30
0.0
  0
SEQEND
  5
26C
  8
____________
  0
POLYLINE
  5
34
  8
____________
 66
     1
 10
0.0
 20
0.0
 30
0.0
  0
VERTEX
  5
1BD
  8
____________
 10
115.492163
 20
176.643608
 30
0.0
 42
-0.257019
  0
VERTEX
  5
1BE
  8
____________
 10
130.978056
 20
169.101705
 30
0.0
  0
SEQEND
  5
26D
  8
____________
  0
POLYLINE
  5
38
  8
____________
 66
     1
 10
0.0
 20
0.0
 30
0.0
  0
VERTEX
  5
1BF
  8
____________
 10
130.978056
 20
169.101705
 30
0.0
 42
-0.06451
  0
VERTEX
  5
1C0
  8
____________
 10
135.338558
 20
155.689347
 30
0.0
  0
SEQEND
  5
26E
  8
____________
  0
POLYLINE
  5
3C
  8
____________
 66
     1
 10
0.0
 20
0.0
 30
0.0
  0
VERTEX
  5
1C1
  8
____________
 10
135.338558
 20
155.689347
 30
0.0
 42
0.100481
  0
VERTEX
  5
1C2
  8
____________
 10
137.824451
 20
149.492756
 30
0.0
  0
SEQEND
  5
26F
  8
____________
  0
POLYLINE
  5
40
  8
____________
 66
     1
 10
0.0
 20
0.0
 30
0.0
  0
VERTEX
  5
1C3
  8
____________
 10
133.137273
 20
137.635318
 30
0.0
 42
0.216068
  0
VERTEX
  5
1C4
  8
____________
 10
143.652038
 20
146.924432
 30
0.0
  0
SEQEND
  5
270
  8
____________
  0
POLYLINE
  5
44
  8
____________
 66
     1
 10
0.0
 20
0.0
 30
0.0
  0
VERTEX
  5
1C5
  8
____________
 10
137.824451
 20
149.492756
 30
0.0
 42
0.298023
  0
VERTEX
  5
1C6
  8
____________
 10
143.652038
 20
146.924432
 30
0.0
  0
VERTEX
  5
1C7
  8
____________
 10
167.940439
 20
146.924432
 30
0.0
  0
SEQEND
  5
271
  8
____________
  0
POLYLINE
  5
49
  8
____________
 66
     1
 10
0.0
 20
0.0
 30
0.0
  0
VERTEX
  5
1C8
  8
____________
 10
169.529781
 20
148.555114
 30
0.0
 42
0.450391
  0
VERTEX
  5
1C9
  8
____________
 10
173.238245
 20
146.475994
 30
0.0
  0
VERTEX
  5
1CA
  8
____________
 10
300.344828
 20
147.658239
 30
0.0
  0
VERTEX
  5
1CB
  8
____________
 10
304.094044
 20
157.197727
 30
0.0
  0
VERTEX
  5
1CC
  8
____________
 10
304.521944
 20
158.25767
 30
0.0
  0
VERTEX
  5
1CD
  8
____________
 10
174.216301
 20
158.787642
 30
0.0
  0
VERTEX
  5
1CE
  8
____________
 10
174.216301
 20
159.623366
 30
0.0
  0
VERTEX
  5
1CF
  8
____________
 10
304.949843
 20
159.623366
 30
0.0
  0
VERTEX
  5
1D0
  8
____________
 10
306.131661
 20
162.049006
 30
0.0
  0
VERTEX
  5
1D1
  8
____________
 10
308.128527
 20
167.144886
 30
0.0
  0
SEQEND
  5
272
  8
____________
  0
POLYLINE
  5
55
  8
____________
 66
     1
 10
0.0
 20
0.0
 30
0.0
  0
VERTEX
  5
1D2
  8
____________
 10
308.128527
 20
167.144886
 30
0.0
 42
-0.295916
  0
VERTEX
  5
1D3
  8
____________
 10
321.658307
 20
176.48054
 30
0.0
  0
VERTEX
  5
1D4
  8
____________
 10
336.532915
 20
176.19517
 30
0.0
  0
VERTEX
  5
1D5
  8
____________
 10
349.247649
 20
175.216761
 30
0.0
  0
SEQEND
  5
273
  8
____________
  0
POLYLINE
  5
5B
  8
____________
 66
     1
 10
0.0
 20
0.0
 30
0.0
  0
VERTEX
  5
1D6
  8
____________
 10
349.247649
 20
175.216761
 30
0.0
 42
-0.384946
  0
VERTEX
  5
1D7
  8
____________
 10
357.398119
 20
164.861932
 30
0.0
  0
VERTEX
  5
1D8
  8
____________
 10
355.42163
 20
163.353551
 30
0.0
  0
SEQEND
  5
274
  8
____________
  0
POLYLINE
  5
60
  8
____________
 66
     1
 10
0.0
 20
0.0
 30
0.0
  0
VERTEX
  5
1D9
  8
____________
 10
355.42163
 20
163.353551
 30
0.0
 42
-0.098761
  0
VERTEX
  5
1DA
  8
____________
 10
354.708464
 20
150.593466
 30
0.0
  0
VERTEX
  5
1DB
  8
____________
 10
356.664577
 20
148.718182
 30
0.0
  0
VERTEX
  5
1DC
  8
____________
 10
355.768025
 20
142.847727
 30
0.0
  0
VERTEX
  5
1DD
  8
____________
 10
363.103448
 20
142.847727
 30
0.0
  0
VERTEX
  5
1DE
  8
____________
 10
363.918495
 20
148.47358
 30
0.0
  0
SEQEND
  5
275
  8
____________
  0
POLYLINE
  5
68
  8
____________
 66
     1
 10
0.0
 20
0.0
 30
0.0
  0
VERTEX
  5
1DF
  8
____________
 10
363.918495
 20
148.47358
 30
0.0
 42
-0.266781
  0
VERTEX
  5
1E0
  8
____________
 10
366.669279
 20
150.410014
 30
0.0
  0
VERTEX
  5
1E1
  8
____________
 10
355.594006
 20
149.744515
 30
0.0
  0
SEQEND
  5
276
  8
____________
  0
POLYLINE
  5
6D
  8
____________
 66
     1
 10
0.0
 20
0.0
 30
0.0
  0
VERTEX
  5
1E2
  8
____________
 10
366.669279
 20
150.410014
 30
0.0
 42
0.21969
  0
VERTEX
  5
1E3
  8
____________
 10
373.373041
 20
158.25767
 30
0.0
  0
SEQEND
  5
277
  8
____________
  0
POLYLINE
  5
71
  8
____________
 66
     1
 10
0.0
 20
0.0
 30
0.0
  0
VERTEX
  5
1E4
  8
____________
 10
373.373041
 20
158.25767
 30
0.0
 42
0.340973
  0
VERTEX
  5
1E5
  8
____________
 10
373.69906
 20
163.965057
 30
0.0
  0
SEQEND
  5
278
  8
____________
  0
POLYLINE
  5
75
  8
____________
 66
     1
 10
0.0
 20
0.0
 30
0.0
  0
VERTEX
  5
1E6
  8
____________
 10
373.69906
 20
163.965057
 30
0.0
 42
0.201993
  0
VERTEX
  5
1E7
  8
____________
 10
369.786834
 20
165.77919
 30
0.0
  0
SEQEND
  5
279
  8
____________
  0
POLYLINE
  5
79
  8
____________
 66
     1
 10
0.0
 20
0.0
 30
0.0
  0
VERTEX
  5
1E8
  8
____________
 10
369.786834
 20
165.77919
 30
0.0
 42
-0.40387
  0
VERTEX
  5
1E9
  8
____________
 10
369.216301
 20
166.81875
 30
0.0
  0
SEQEND
  5
27A
  8
____________
  0
POLYLINE
  5
7D
  8
____________
 66
     1
 10
0.0
 20
0.0
 30
0.0
  0
VERTEX
  5
1EA
  8
____________
 10
369.216301
 20
166.81875
 30
0.0
 42
0.074033
  0
VERTEX
  5
1EB
  8
____________
 10
370.9279
 20
186.060795
 30
0.0
  0
SEQEND
  5
27B
  8
____________
  0
POLYLINE
  5
81
  8
____________
 66
     1
 10
0.0
 20
0.0
 30
0.0
  0
VERTEX
  5
1EC
  8
____________
 10
370.9279
 20
186.060795
 30
0.0
 42
0.282214
  0
VERTEX
  5
1ED
  8
____________
 10
370.112853
 20
186.835369
 30
0.0
  0
SEQEND
  5
27C
  8
____________
  0
POLYLINE
  5
85
  8
____________
 66
     1
 10
0.0
 20
0.0
 30
0.0
  0
VERTEX
  5
1EE
  8
____________
 10
370.112853
 20
186.835369
 30
0.0
 42
0.272346
  0
VERTEX
  5
1EF
  8
____________
 10
365.772727
 20
190.320952
 30
0.0
  0
SEQEND
  5
27D
  8
____________
  0
POLYLINE
  5
89
  8
____________
 66
     1
 10
0.0
 20
0.0
 30
0.0
  0
VERTEX
  5
1F0
  8
____________
 10
365.772727
 20
190.320952
 30
0.0
 42
0.03569
  0
VERTEX
  5
1F1
  8
____________
 10
296.473354
 20
201.674574
 30
0.0
  0
VERTEX
  5
1F2
  8
____________
 10
263.015674
 20
229.518466
 30
0.0
  0
SEQEND
  5
27E
  8
____________
  0
POLYLINE
  5
8E
  8
____________
 66
     1
 10
0.0
 20
0.0
 30
0.0
  0
VERTEX
  5
1F3
  8
____________
 10
263.015674
 20
229.518466
 30
0.0
 42
0.136623
  0
VERTEX
  5
1F4
  8
____________
 10
251.523511
 20
234.57358
 30
0.0
  0
SEQEND
  5
27F
  8
____________
  0
POLYLINE
  5
92
  8
____________
 66
     1
 10
0.0
 20
0.0
 30
0.0
  0
VERTEX
  5
1F5
  8
____________
 10
251.523511
 20
234.57358
 30
0.0
 42
0.031712
  0
VERTEX
  5
1F6
  8
____________
 10
208.326019
 20
235.633523
 30
0.0
  0
VERTEX
  5
1F7
  8
____________
 10
180.532915
 20
234.57358
 30
0.0
  0
VERTEX
  5
1F8
  8
____________
 10
176.742947
 20
234.28821
 30
0.0
  0
SEQEND
  5
280
  8
____________
  0
POLYLINE
  5
98
  8
____________
 66
     1
 10
0.0
 20
0.0
 30
0.0
  0
VERTEX
  5
1F9
  8
____________
 10
176.742947
 20
234.28821
 30
0.0
 42
0.297817
  0
VERTEX
  5
1FA
  8
____________
 10
174.257053
 20
231.842187
 30
0.0
  0
SEQEND
  5
281
  8
____________
  0
POLYLINE
  5
9C
  8
____________
 66
     1
 10
0.0
 20
0.0
 30
0.0
  0
VERTEX
  5
1FB
  8
____________
 10
174.257053
 20
231.842187
 30
0.0
 42
0.037507
  0
VERTEX
  5
1FC
  8
____________
 10
169.69279
 20
198.046307
 30
0.0
  0
VERTEX
  5
1FD
  8
____________
 10
169.529781
 20
148.555114
 30
0.0
 42
-0.254572
  0
VERTEX
  5
1FE
  8
____________
 10
167.940439
 20
146.924432
 30
0.0
  0
SEQEND
  5
282
  8
____________
  0
POLYLINE
  5
A2
  8
____________
 66
     1
 10
0.0
 20
0.0
 30
0.0
  0
VERTEX
  5
1FF
  8
____________
 10
370.112853
 20
186.835369
 30
0.0
 42
-0.157187
  0
VERTEX
  5
200
  8
____________
 10
364.733542
 20
185.653125
 30
0.0
  0
SEQEND
  5
283
  8
____________
  0
POLYLINE
  5
A6
  8
____________
 66
     1
 10
0.0
 20
0.0
 30
0.0
  0
VERTEX
  5
201
  8
____________
 10
364.733542
 20
185.653125
 30
0.0
 42
-0.025241
  0
VERTEX
  5
202
  8
____________
 10
363.266458
 20
165.269602
 30
0.0
  0
SEQEND
  5
284
  8
____________
  0
POLYLINE
  5
AA
  8
____________
 66
     1
 10
0.0
 20
0.0
 30
0.0
  0
VERTEX
  5
203
  8
____________
 10
357.398119
 20
164.861932
 30
0.0
 42
0.004318
  0
VERTEX
  5
204
  8
____________
 10
369.786834
 20
165.77919
 30
0.0
  0
SEQEND
  5
285
  8
____________
  0
POLYLINE
  5
AE
  8
____________
 66
     1
 10
0.0
 20
0.0
 30
0.0
  0
VERTEX
  5
205
  8
____________
 10
373.992763
 20
159.171278
 30
0.0
  0
VERTEX
  5
206
  8
____________
 10
362.736677
 20
159.032244
 30
0.0
  0
VERTEX
  5
207
  8
____________
 10
362.736677
 20
160.255256
 30
0.0
  0
VERTEX
  5
208
  8
____________
 10
374.437567
 20
160.465758
 30
0.0
  0
SEQEND
  5
286
  8
____________
  0
POLYLINE
  5
B4
  8
____________
 66
     1
 10
0.0
 20
0.0
 30
0.0
  0
VERTEX
  5
209
  8
____________
 10
134.421047
 20
159.730571
 30
0.0
  0
VERTEX
  5
20A
  8
____________
 10
163.416928
 20
159.073011
 30
0.0
  0
VERTEX
  5
20B
  8
____________
 10
163.661442
 20
160.214489
 30
0.0
  0
VERTEX
  5
20C
  8
____________
 10
134.117678
 20
160.821089
 30
0.0
  0
SEQEND
  5
287
  8
____________
  0
POLYLINE
  5
BA
  8
____________
 66
     1
 10
0.0
 20
0.0
 30
0.0
  0
VERTEX
  5
20D
  8
____________
 10
164.802508
 20
165.188068
 30
0.0
  0
VERTEX
  5
20E
  8
____________
 10
135.786834
 20
165.188068
 30
0.0
  0
SEQEND
  5
288
  8
____________
  0
POLYLINE
  5
BE
  8
____________
 66
     1
 10
0.0
 20
0.0
 30
0.0
  0
VERTEX
  5
20F
  8
____________
 10
76.191241
 20
162.461868
 30
0.0
  0
VERTEX
  5
210
  8
____________
 10
53.956113
 20
162.461868
 30
0.0
  0
VERTEX
  5
211
  8
____________
 10
53.956113
 20
161.4375
 30
0.0
  0
VERTEX
  5
212
  8
____________
 10
75.915273
 20
161.38905
 30
0.0
  0
SEQEND
  5
289
  8
____________
  0
POLYLINE
  5
C4
  8
____________
 66
     1
 10
0.0
 20
0.0
 30
0.0
  0
VERTEX
  5
213
  8
____________
 10
49.717868
 20
166.329545
 30
0.0
  0
VERTEX
  5
214
  8
____________
 10
74.821317
 20
166.329545
 30
0.0
  0
SEQEND
  5
28A
  8
____________
  0
POLYLINE
  5
C8
  8
____________
 66
     1
 10
0.0
 20
0.0
 30
0.0
  0
VERTEX
  5
215
  8
____________
 10
74.882445
 20
152.631818
 30
0.0
 42
-0.41985
  0
VERTEX
  5
216
  8
____________
 10
73.680251
 20
150.797301
 30
0.0
  0
VERTEX
  5
217
  8
____________
 10
56.84953
 20
151.612642
 30
0.0
  0
SEQEND
  5
28B
  8
____________
  0
POLYLINE
  5
CD
  8
____________
 66
     1
 10
0.0
 20
0.0
 30
0.0
  0
VERTEX
  5
218
  8
____________
 10
56.84953
 20
151.612642
 30
0.0
 42
-0.302553
  0
VERTEX
  5
219
  8
____________
 10
48.128527
 20
157.727699
 30
0.0
  0
SEQEND
  5
28C
  8
____________
  0
POLYLINE
  5
D1
  8
____________
 66
     1
 10
0.0
 20
0.0
 30
0.0
  0
VERTEX
  5
21A
  8
____________
 10
48.128527
 20
157.727699
 30
0.0
 42
-0.076233
  0
VERTEX
  5
21B
  8
____________
 10
45.438871
 20
164.861932
 30
0.0
  0
SEQEND
  5
28D
  8
____________
  0
POLYLINE
  5
D5
  8
____________
 66
     1
 10
0.0
 20
0.0
 30
0.0
  0
VERTEX
  5
21C
  8
____________
 10
49.841192
 20
154.900093
 30
0.0
 42
-0.475593
  0
VERTEX
  5
21D
  8
____________
 10
48.00627
 20
152.998722
 30
0.0
  0
VERTEX
  5
21E
  8
____________
 10
42.015674
 20
153.487926
 30
0.0
  0
SEQEND
  5
28E
  8
____________
  0
POLYLINE
  5
DA
  8
____________
 66
     1
 10
0.0
 20
0.0
 30
0.0
  0
VERTEX
  5
21F
  8
____________
 10
42.015674
 20
153.487926
 30
0.0
 42
-0.244247
  0
VERTEX
  5
220
  8
____________
 10
35.53605
 20
159.725284
 30
0.0
  0
SEQEND
  5
28F
  8
____________
  0
POLYLINE
  5
DE
  8
____________
 66
     1
 10
0.0
 20
0.0
 30
0.0
  0
VERTEX
  5
221
  8
____________
 10
35.53605
 20
159.725284
 30
0.0
 42
-0.547848
  0
VERTEX
  5
222
  8
____________
 10
35.984326
 20
165.921875
 30
0.0
  0
SEQEND
  5
290
  8
____________
  0
POLYLINE
  5
E2
  8
____________
 66
     1
 10
0.0
 20
0.0
 30
0.0
  0
VERTEX
  5
223
  8
____________
 10
44.827586
 20
177.255114
 30
0.0
 42
-0.229696
  0
VERTEX
  5
224
  8
____________
 10
43.523511
 20
181.494886
 30
0.0
  0
VERTEX
  5
225
  8
____________
 10
43.768025
 20
197.353267
 30
0.0
 42
-0.330803
  0
VERTEX
  5
226
  8
____________
 10
46.45768
 20
201.24652
 30
0.0
  0
VERTEX
  5
227
  8
____________
 10
52.081505
 20
200.573864
 30
0.0
 42
0.107543
  0
VERTEX
  5
228
  8
____________
 10
51.673981
 20
176.684375
 30
0.0
  0
VERTEX
  5
229
  8
____________
 10
44.827586
 20
177.255114
 30
0.0
  0
VERTEX
  5
22A
  8
____________
 10
45.438871
 20
167.756392
 30
0.0
 42
0.110353
  0
VERTEX
  5
22B
  8
____________
 10
35.984326
 20
165.921875
 30
0.0
  0
SEQEND
  5
291
  8
____________
  0
POLYLINE
  5
ED
  8
____________
 66
     1
 10
0.0
 20
0.0
 30
0.0
  0
VERTEX
  5
22C
  8
____________
 10
46.45768
 20
201.24652
 30
0.0
 42
-0.43346
  0
VERTEX
  5
22D
  8
____________
 10
49.880878
 20
203.264489
 30
0.0
  0
VERTEX
  5
22E
  8
____________
 10
167.573668
 20
201.796875
 30
0.0
  0
SEQEND
  5
292
  8
____________
  0
POLYLINE
  5
F2
  8
____________
 66
     1
 10
0.0
 20
0.0
 30
0.0
  0
VERTEX
  5
22F
  8
____________
 10
167.573668
 20
201.796875
 30
0.0
 42
-0.367518
  0
VERTEX
  5
230
  8
____________
 10
169.78976
 20
199.591735
 30
0.0
  0
SEQEND
  5
293
  8
____________
  0
POLYLINE
  5
F6
  8
____________
 66
     1
 10
0.0
 20
0.0
 30
0.0
  0
VERTEX
  5
231
  8
____________
 10
173.442006
 20
165.025
 30
0.0
  0
VERTEX
  5
232
  8
____________
 10
214.031348
 20
164.535795
 30
0.0
  0
SEQEND
  5
294
  8
____________
  0
POLYLINE
  5
FA
  8
____________
 66
     1
 10
0.0
 20
0.0
 30
0.0
  0
VERTEX
  5
233
  8
____________
 10
303.523511
 20
164.372727
 30
0.0
  0
VERTEX
  5
234
  8
____________
 10
221.448276
 20
164.372727
 30
0.0
  0
SEQEND
  5
295
  8
____________
  0
POLYLINE
  5
FE
  8
____________
 66
     1
 10
0.0
 20
0.0
 30
0.0
 70
     1
  0
VERTEX
  5
235
  8
____________
 10
221.326
 20
185.612
 30
0.0
  0
VERTEX
  5
236
  8
____________
 10
221.326
 20
187.528
 30
0.0
  0
VERTEX
  5
237
  8
____________
 10
229.028
 20
187.528
 30
0.0
  0
VERTEX
  5
238
  8
____________
 10
229.028
 20
185.612
 30
0.0
  0
VERTEX
  5
239
  8
____________
 10
221.326
 20
185.612
 30
0.0
  0
SEQEND
  5
296
  8
____________
  0
POLYLINE
  5
105
  8
____________
 66
     1
 10
0.0
 20
0.0
 30
0.0
  0
VERTEX
  5
23A
  8
____________
 10
219.410658
 20
233.676705
 30
0.0
  0
VERTEX
  5
23B
  8
____________
 10
218.269592
 20
196.334091
 30
0.0
  0
VERTEX
  5
23C
  8
____________
 10
217.821317
 20
159.623366
 30
0.0
  0
VERTEX
  5
23D
  8
____________
 10
217.128527
 20
149.533523
 30
0.0
  0
VERTEX
  5
23E
  8
____________
 10
291.949843
 20
149.533523
 30
0.0
  0
VERTEX
  5
23F
  8
____________
 10
296.677116
 20
159.623366
 30
0.0
  0
SEQEND
  5
297
  8
____________
  0
POLYLINE
  5
10D
  8
____________
 66
     1
 10
0.0
 20
0.0
 30
0.0
  0
VERTEX
  5
240
  8
____________
 10
296.677116
 20
159.623366
 30
0.0
 42
0.08741
  0
VERTEX
  5
241
  8
____________
 10
297.329154
 20
196.007955
 30
0.0
  0
SEQEND
  5
298
  8
____________
  0
POLYLINE
  5
111
  8
____________
 66
     1
 10
0.0
 20
0.0
 30
0.0
  0
VERTEX
  5
242
  8
____________
 10
297.329154
 20
196.007955
 30
0.0
 42
0.232335
  0
VERTEX
  5
243
  8
____________
 10
293.172414
 20
199.473153
 30
0.0
  0
VERTEX
  5
244
  8
____________
 10
261.309417
 20
230.790137
 30
0.0
  0
SEQEND
  5
299
  8
____________
  0
POLYLINE
  5
116
  8
____________
 66
     1
 10
0.0
 20
0.0
 30
0.0
  0
VERTEX
  5
245
  8
____________
 10
221.652038
 20
234.777415
 30
0.0
  0
VERTEX
  5
246
  8
____________
 10
251.82723
 20
234.527864
 30
0.0
  0
SEQEND
  5
29A
  8
____________
  0
POLYLINE
  5
11A
  8
____________
 66
     1
 10
0.0
 20
0.0
 30
0.0
  0
VERTEX
  5
247
  8
____________
 10
219.410658
 20
233.676705
 30
0.0
 42
-0.323293
  0
VERTEX
  5
248
  8
____________
 10
221.652038
 20
234.777415
 30
0.0
  0
SEQEND
  5
29B
  8
____________
  0
POLYLINE
  5
11E
  8
____________
 66
     1
 10
0.0
 20
0.0
 30
0.0
  0
VERTEX
  5
249
  8
____________
 10
170.793103
 20
197.067898
 30
0.0
  0
VERTEX
  5
24A
  8
____________
 10
297.613476
 20
194.090617
 30
0.0
  0
VERTEX
  5
24B
  8
____________
 10
330.257053
 20
192.094318
 30
0.0
  0
SEQEND
  5
29C
  8
____________
  0
POLYLINE
  5
123
  8
____________
 66
     1
 10
0.0
 20
0.0
 30
0.0
  0
VERTEX
  5
24C
  8
____________
 10
330.257053
 20
192.094318
 30
0.0
 42
-0.025963
  0
VERTEX
  5
24D
  8
____________
 10
362.858934
 20
188.180682
 30
0.0
  0
SEQEND
  5
29D
  8
____________
  0
POLYLINE
  5
127
  8
____________
 66
     1
 10
0.0
 20
0.0
 30
0.0
  0
VERTEX
  5
24E
  8
____________
 10
186.237867
 20
196.705311
 30
0.0
 42
-0.141909
  0
VERTEX
  5
24F
  8
____________
 10
185.341693
 20
200.288494
 30
0.0
  0
VERTEX
  5
250
  8
____________
 10
187.460815
 20
227.887784
 30
0.0
  0
SEQEND
  5
29E
  8
____________
  0
POLYLINE
  5
12C
  8
____________
 66
     1
 10
0.0
 20
0.0
 30
0.0
  0
VERTEX
  5
251
  8
____________
 10
187.460815
 20
227.887784
 30
0.0
 42
-0.416652
  0
VERTEX
  5
252
  8
____________
 10
191.943574
 20
231.271449
 30
0.0
  0
VERTEX
  5
253
  8
____________
 10
212.605016
 20
231.597585
 30
0.0
  0
SEQEND
  5
29F
  8
____________
  0
POLYLINE
  5
131
  8
____________
 66
     1
 10
0.0
 20
0.0
 30
0.0
  0
VERTEX
  5
254
  8
____________
 10
212.605016
 20
231.597585
 30
0.0
 42
-0.46064
  0
VERTEX
  5
255
  8
____________
 10
215.742947
 20
228.254687
 30
0.0
  0
VERTEX
  5
256
  8
____________
 10
213.949843
 20
198.535511
 30
0.0
  0
SEQEND
  5
2A0
  8
____________
  0
POLYLINE
  5
136
  8
____________
 66
     1
 10
0.0
 20
0.0
 30
0.0
  0
VERTEX
  5
257
  8
____________
 10
213.949843
 20
198.535511
 30
0.0
 42
-0.303673
  0
VERTEX
  5
258
  8
____________
 10
211.667197
 20
196.108323
 30
0.0
  0
SEQEND
  5
2A1
  8
____________
  0
POLYLINE
  5
13A
  8
____________
 66
     1
 10
0.0
 20
0.0
 30
0.0
  0
VERTEX
  5
259
  8
____________
 10
225.27768
 20
195.788798
 30
0.0
 42
-0.418758
  0
VERTEX
  5
25A
  8
____________
 10
221.978056
 20
200.20696
 30
0.0
  0
VERTEX
  5
25B
  8
____________
 10
222.589342
 20
228.21392
 30
0.0
  0
SEQEND
  5
2A2
  8
____________
  0
POLYLINE
  5
13F
  8
____________
 66
     1
 10
0.0
 20
0.0
 30
0.0
  0
VERTEX
  5
25C
  8
____________
 10
222.589342
 20
228.21392
 30
0.0
 42
-0.400498
  0
VERTEX
  5
25D
  8
____________
 10
226.297806
 20
231.352983
 30
0.0
  0
VERTEX
  5
25E
  8
____________
 10
251.523511
 20
230.211506
 30
0.0
  0
SEQEND
  5
2A3
  8
____________
  0
POLYLINE
  5
144
  8
____________
 66
     1
 10
0.0
 20
0.0
 30
0.0
  0
VERTEX
  5
25F
  8
____________
 10
251.523511
 20
230.211506
 30
0.0
 42
-0.196695
  0
VERTEX
  5
260
  8
____________
 10
263.504702
 20
224.21875
 30
0.0
  0
VERTEX
  5
261
  8
____________
 10
289.586207
 20
199.024716
 30
0.0
  0
SEQEND
  5
2A4
  8
____________
  0
POLYLINE
  5
149
  8
____________
 66
     1
 10
0.0
 20
0.0
 30
0.0
  0
VERTEX
  5
262
  8
____________
 10
289.586207
 20
199.024716
 30
0.0
 42
-0.561337
  0
VERTEX
  5
263
  8
____________
 10
289.076692
 20
194.29103
 30
0.0
  0
SEQEND
  5
2A5
  8
____________
  0
POLYLINE
  5
14D
  8
____________
 66
     1
 10
0.0
 20
0.0
 30
0.0
  0
VERTEX
  5
264
  8
____________
 10
34.062794
 20
162.946373
 30
0.0
  0
VERTEX
  5
265
  8
____________
 10
40.670846
 20
162.946373
 30
0.0
  0
VERTEX
  5
266
  8
____________
 10
40.670846
 20
161.967472
 30
0.0
  0
VERTEX
  5
267
  8
____________
 10
34.133645
 20
161.914473
 30
0.0
  0
SEQEND
  5
2A6
  8
____________
  0
POLYLINE
  5
153
  8
____________
 66
     1
 10
0.0
 20
0.0
 30
0.0
  0
VERTEX
  5
268
  8
____________
 10
176.862994
 20
146.509709
 30
0.0
  0
VERTEX
  5
269
  8
____________
 10
190.15047
 20
141.950852
 30
0.0
  0
VERTEX
  5
26A
  8
____________
 10
301.599552
 20
141.869318
 30
0.0
  0
SEQEND
  5
2A7
  8
____________
  0
ENDSEC
  0
EOF
