%!PS-Adobe-3.0 EPSF-3.0
%%BoundingBox: -6134.20629147 1497.08649282 -5113.73385052 2290.78728022
%%Creator: ArtCAM
%%Title: Contour data from ArtCAM
%%CreationDate: W
%%EndComments
%%BeginSetup
%%EndSetup
%%BeginProlog
%%EndProlog

%%Scaling factor from millimetres to PostScript units
2.834646 2.834646 scale

-2164.011664 528.138846 moveto
-2164.011664 808.138846 lineto
-1804.011664 808.138846 lineto
-1804.011664 528.138846 lineto
-2164.011664 528.138846 lineto
1 setlinejoin
1 setlinecap 
0.000000 setlinewidth
stroke
-1863.661664 562.138846 moveto
-1863.661664 566.363824 -1860.236642 569.788846 -1856.011664 569.788846 curveto
-1851.786686 569.788846 -1848.361664 566.363824 -1848.361664 562.138846 curveto
-1848.361664 557.913868 -1851.786686 554.488846 -1856.011664 554.488846 curveto
-1860.236642 554.488846 -1863.661664 557.913868 -1863.661664 562.138846 curveto
1 setlinejoin
1 setlinecap 
0.000000 setlinewidth
stroke
-1863.661664 774.138846 moveto
-1863.661664 778.363824 -1860.236642 781.788846 -1856.011664 781.788846 curveto
-1851.786686 781.788846 -1848.361664 778.363824 -1848.361664 774.138846 curveto
-1848.361664 769.913868 -1851.786686 766.488846 -1856.011664 766.488846 curveto
-1860.236642 766.488846 -1863.661664 769.913868 -1863.661664 774.138846 curveto
1 setlinejoin
1 setlinecap 
0.000000 setlinewidth
stroke
-2119.661664 562.138846 moveto
-2119.661664 566.363824 -2116.236642 569.788846 -2112.011664 569.788846 curveto
-2107.786686 569.788846 -2104.361664 566.363824 -2104.361664 562.138846 curveto
-2104.361664 557.913868 -2107.786686 554.488846 -2112.011664 554.488846 curveto
-2116.236642 554.488846 -2119.661664 557.913868 -2119.661664 562.138846 curveto
1 setlinejoin
1 setlinecap 
0.000000 setlinewidth
stroke
-2119.661664 774.138846 moveto
-2119.661664 778.363824 -2116.236642 781.788846 -2112.011664 781.788846 curveto
-2107.786686 781.788846 -2104.361664 778.363824 -2104.361664 774.138846 curveto
-2104.361664 769.913868 -2107.786686 766.488846 -2112.011664 766.488846 curveto
-2116.236642 766.488846 -2119.661664 769.913868 -2119.661664 774.138846 curveto
1 setlinejoin
1 setlinecap 
0.000000 setlinewidth
stroke
