  0
SECTION
  2
HEADER
  9
$ACADVER
  1
AC1009
  9
$DWGCODEPAGE
  3
ansi_1251
  9
$INSBASE
 10
0.0
 20
0.0
 30
0.0
  9
$EXTMIN
 10
114.93715
 20
98.698307
 30
0.0
  9
$EXTMAX
 10
407.694796
 20
382.135956
 30
0.0
  9
$LIMMIN
 10
0.0
 20
0.0
  9
$LIMMAX
 10
12.0
 20
9.0
  9
$ORTHOMODE
 70
     0
  9
$REGENMODE
 70
     1
  9
$FILLMODE
 70
     1
  9
$QTEXTMODE
 70
     0
  9
$MIRRTEXT
 70
     1
  9
$DRAGMODE
 70
     2
  9
$LTSCALE
 40
1.0
  9
$OSMODE
 70
    37
  9
$ATTMODE
 70
     1
  9
$TEXTSIZE
 40
250.0
  9
$TRACEWID
 40
0.05
  9
$TEXTSTYLE
  7
STANDARD
  9
$CLAYER
  8
0
  9
$CELTYPE
  6
BYBLOCK
  9
$CECOLOR
 62
   256
  9
$DIMSCALE
 40
100.0
  9
$DIMASZ
 40
0.18
  9
$DIMEXO
 40
0.0625
  9
$DIMDLI
 40
0.38
  9
$DIMRND
 40
0.0
  9
$DIMDLE
 40
0.0
  9
$DIMEXE
 40
0.18
  9
$DIMTP
 40
0.0
  9
$DIMTM
 40
0.0
  9
$DIMTXT
 40
0.18
  9
$DIMCEN
 40
0.09
  9
$DIMTSZ
 40
0.0
  9
$DIMTOL
 70
     0
  9
$DIMLIM
 70
     0
  9
$DIMTIH
 70
     1
  9
$DIMTOH
 70
     1
  9
$DIMSE1
 70
     0
  9
$DIMSE2
 70
     0
  9
$DIMTAD
 70
     0
  9
$DIMZIN
 70
     0
  9
$DIMBLK
  1

  9
$DIMASO
 70
     1
  9
$DIMSHO
 70
     1
  9
$DIMPOST
  1

  9
$DIMAPOST
  1

  9
$DIMALT
 70
     0
  9
$DIMALTD
 70
     2
  9
$DIMALTF
 40
25.4
  9
$DIMLFAC
 40
1.0
  9
$DIMTOFL
 70
     0
  9
$DIMTVP
 40
0.0
  9
$DIMTIX
 70
     0
  9
$DIMSOXD
 70
     0
  9
$DIMSAH
 70
     0
  9
$DIMBLK1
  1

  9
$DIMBLK2
  1

  9
$DIMSTYLE
  2
STANDARD
  9
$DIMCLRD
 70
     0
  9
$DIMCLRE
 70
     0
  9
$DIMCLRT
 70
     0
  9
$DIMTFAC
 40
1.0
  9
$DIMGAP
 40
0.09
  9
$LUNITS
 70
     2
  9
$LUPREC
 70
     4
  9
$SKETCHINC
 40
0.1
  9
$FILLETRAD
 40
0.5
  9
$AUNITS
 70
     0
  9
$AUPREC
 70
     0
  9
$MENU
  1
.
  9
$ELEVATION
 40
0.0
  9
$PELEVATION
 40
0.0
  9
$THICKNESS
 40
0.0
  9
$LIMCHECK
 70
     0
  9
$CHAMFERA
 40
0.0
  9
$CHAMFERB
 40
0.0
  9
$SKPOLY
 70
     0
  9
$TDCREATE
 40
2459313.667458715
  9
$TDUPDATE
 40
2459313.779935915
  9
$TDINDWG
 40
0.0000000116
  9
$TDUSRTIMER
 40
0.0000000116
  9
$USRTIMER
 70
     1
  9
$ANGBASE
 50
0.0
  9
$ANGDIR
 70
     0
  9
$PDMODE
 70
     0
  9
$PDSIZE
 40
0.0
  9
$PLINEWID
 40
0.0
  9
$COORDS
 70
     1
  9
$SPLFRAME
 70
     0
  9
$SPLINETYPE
 70
     6
  9
$SPLINESEGS
 70
     8
  9
$ATTDIA
 70
     0
  9
$ATTREQ
 70
     1
  9
$HANDLING
 70
     1
  9
$HANDSEED
  5
146
  9
$SURFTAB1
 70
     6
  9
$SURFTAB2
 70
     6
  9
$SURFTYPE
 70
     6
  9
$SURFU
 70
     6
  9
$SURFV
 70
     6
  9
$UCSNAME
  2

  9
$UCSORG
 10
0.0
 20
0.0
 30
0.0
  9
$UCSXDIR
 10
1.0
 20
0.0
 30
0.0
  9
$UCSYDIR
 10
0.0
 20
1.0
 30
0.0
  9
$PUCSNAME
  2

  9
$PUCSORG
 10
0.0
 20
0.0
 30
0.0
  9
$PUCSXDIR
 10
1.0
 20
0.0
 30
0.0
  9
$PUCSYDIR
 10
0.0
 20
1.0
 30
0.0
  9
$USERI1
 70
     0
  9
$USERI2
 70
     0
  9
$USERI3
 70
     0
  9
$USERI4
 70
     0
  9
$USERI5
 70
     0
  9
$USERR1
 40
0.0
  9
$USERR2
 40
0.0
  9
$USERR3
 40
0.0
  9
$USERR4
 40
0.0
  9
$USERR5
 40
0.0
  9
$WORLDVIEW
 70
     1
  9
$SHADEDGE
 70
     3
  9
$SHADEDIF
 70
    70
  9
$TILEMODE
 70
     1
  9
$MAXACTVP
 70
    64
  9
$PLIMCHECK
 70
     0
  9
$PEXTMIN
 10
1.000000E+20
 20
1.000000E+20
 30
1.000000E+20
  9
$PEXTMAX
 10
-1.000000E+20
 20
-1.000000E+20
 30
-1.000000E+20
  9
$PLIMMIN
 10
0.0
 20
0.0
  9
$PLIMMAX
 10
12.0
 20
9.0
  9
$UNITMODE
 70
     0
  9
$VISRETAIN
 70
     1
  9
$PLINEGEN
 70
     0
  9
$PSLTSCALE
 70
     0
  0
ENDSEC
  0
SECTION
  2
TABLES
  0
TABLE
  2
VPORT
 70
     1
  0
VPORT
  2
*ACTIVE
 70
     0
 10
0.0
 20
0.0
 11
1.0
 21
1.0
 12
288.306878
 22
223.483347
 13
0.0
 23
0.0
 14
0.5
 24
0.5
 15
0.5
 25
0.5
 16
0.0
 26
0.0
 36
1.0
 17
0.0
 27
0.0
 37
0.0
 40
375.838322
 41
1.869177
 42
50.0
 43
0.0
 44
0.0
 50
0.0
 51
0.0
 71
    16
 72
   100
 73
     1
 74
     3
 75
     0
 76
     0
 77
     0
 78
     0
  0
ENDTAB
  0
TABLE
  2
LTYPE
 70
     1
  0
LTYPE
  2
CONTINUOUS
 70
     0
  3
Solid line
 72
    65
 73
     0
 40
0.0
  0
ENDTAB
  0
TABLE
  2
LAYER
 70
     2
  0
LAYER
  2
0
 70
     0
 62
     7
  6
CONTINUOUS
  0
LAYER
  2
____________
 70
     0
 62
    18
  6
CONTINUOUS
  0
ENDTAB
  0
TABLE
  2
STYLE
 70
     1
  0
STYLE
  2
STANDARD
 70
     0
 40
0.0
 41
1.0
 50
0.0
 71
     0
 42
250.0
  3
txt
  4

  0
ENDTAB
  0
TABLE
  2
VIEW
 70
     0
  0
ENDTAB
  0
TABLE
  2
UCS
 70
     0
  0
ENDTAB
  0
TABLE
  2
APPID
 70
     6
  0
APPID
  2
ACAD
 70
     0
  0
APPID
  2
MCS_DIM1
 70
     0
  0
APPID
  2
MCSXDATA5
 70
     0
  0
APPID
  2
MCS_DOCUMENT_ID
 70
     0
  0
APPID
  2
MCS_PARAMS_DATA
 70
     0
  0
APPID
  2
MC_VERSION_DATA
 70
     0
  0
ENDTAB
  0
TABLE
  2
DIMSTYLE
 70
     1
  0
DIMSTYLE
  2
STANDARD
 70
     0
  3

  4

  5

  6

  7

 40
1.0
 41
0.18
 42
0.0625
 43
0.38
 44
0.18
 45
0.0
 46
0.0
 47
0.0
 48
0.0
140
0.18
141
0.09
142
0.0
143
25.4
144
1.0
145
0.0
146
1.0
147
0.09
 71
     0
 72
     0
 73
     1
 74
     1
 75
     0
 76
     0
 77
     0
 78
     0
170
     0
171
     2
172
     0
173
     0
174
     0
175
     0
176
     0
177
     0
178
     0
  0
ENDTAB
  0
ENDSEC
  0
SECTION
  2
BLOCKS
  0
BLOCK
  8
0
  2
$MODEL_SPACE
 70
     0
 10
0.0
 20
0.0
 30
0.0
  3
$MODEL_SPACE
  1

  0
ENDBLK
  5
AC
  8
0
  0
BLOCK
 67
     1
  8
0
  2
$PAPER_SPACE
 70
     0
 10
0.0
 20
0.0
 30
0.0
  3
$PAPER_SPACE
  1

  0
ENDBLK
  5
AE
 67
     1
  8
0
  0
ENDSEC
  0
SECTION
  2
ENTITIES
  0
POLYLINE
  5
22
  8
____________
 62
     0
 66
     1
 10
0.0
 20
0.0
 30
0.0
 70
     1
  0
VERTEX
  5
E5
  8
____________
 62
     0
 10
117.139663
 20
275.281606
 30
0.0
 42
-0.065201
  0
VERTEX
  5
E6
  8
____________
 62
     0
 10
118.230421
 20
358.730119
 30
0.0
  0
VERTEX
  5
E7
  8
____________
 62
     0
 10
118.377489
 20
359.777506
 30
0.0
 42
-0.155438
  0
VERTEX
  5
E8
  8
____________
 62
     0
 10
127.668295
 20
374.087297
 30
0.0
 42
-0.162142
  0
VERTEX
  5
E9
  8
____________
 62
     0
 10
145.709287
 20
380.933071
 30
0.0
 42
-0.021764
  0
VERTEX
  5
EA
  8
____________
 62
     0
 10
148.730323
 20
380.937947
 30
0.0
 42
-0.06331
  0
VERTEX
  5
EB
  8
____________
 62
     0
 10
187.382292
 20
380.886653
 30
0.0
 42
-0.042219
  0
VERTEX
  5
EC
  8
____________
 62
     0
 10
214.808409
 20
374.972083
 30
0.0
 42
-0.217895
  0
VERTEX
  5
ED
  8
____________
 62
     0
 10
244.370078
 20
354.915167
 30
0.0
 42
-0.041013
  0
VERTEX
  5
EE
  8
____________
 62
     0
 10
247.319015
 20
313.468069
 30
0.0
 42
-0.039182
  0
VERTEX
  5
EF
  8
____________
 62
     0
 10
244.09222
 20
277.697287
 30
0.0
 42
-0.153445
  0
VERTEX
  5
F0
  8
____________
 62
     0
 10
231.42387
 20
261.110936
 30
0.0
 42
-0.096514
  0
VERTEX
  5
F1
  8
____________
 62
     0
 10
217.673962
 20
254.961684
 30
0.0
 42
-0.026783
  0
VERTEX
  5
F2
  8
____________
 62
     0
 10
212.706638
 20
254.064324
 30
0.0
 42
-0.027617
  0
VERTEX
  5
F3
  8
____________
 62
     0
 10
168.263873
 20
259.206219
 30
0.0
 42
-0.009109
  0
VERTEX
  5
F4
  8
____________
 62
     0
 10
150.607027
 20
262.539172
 30
0.0
 42
-0.12847
  0
VERTEX
  5
F5
  8
____________
 62
     0
 10
125.45868
 20
269.226827
 30
0.0
 42
-0.055109
  0
VERTEX
  5
F6
  8
____________
 62
     0
 10
117.139663
 20
275.281606
 30
0.0
  0
SEQEND
  5
141
  8
____________
 62
     0
  0
POLYLINE
  5
36
  8
____________
 62
     0
 66
     1
 10
0.0
 20
0.0
 30
0.0
 70
     1
  0
VERTEX
  5
F7
  8
____________
 62
     0
 10
242.159919
 20
117.668438
 30
0.0
 42
-0.05544
  0
VERTEX
  5
F8
  8
____________
 62
     0
 10
237.029731
 20
139.440851
 30
0.0
 42
-0.084246
  0
VERTEX
  5
F9
  8
____________
 62
     0
 10
238.382972
 20
169.087854
 30
0.0
 42
-0.034474
  0
VERTEX
  5
FA
  8
____________
 62
     0
 10
241.663589
 20
180.268554
 30
0.0
 42
0.082373
  0
VERTEX
  5
FB
  8
____________
 62
     0
 10
236.40547
 20
152.734043
 30
0.0
 42
0.073869
  0
VERTEX
  5
FC
  8
____________
 62
     0
 10
239.885462
 20
124.907812
 30
0.0
 42
0.017103
  0
VERTEX
  5
FD
  8
____________
 62
     0
 10
242.159919
 20
117.668438
 30
0.0
  0
SEQEND
  5
142
  8
____________
 62
     0
  0
POLYLINE
  5
3F
  8
____________
 62
     0
 66
     1
 10
0.0
 20
0.0
 30
0.0
  0
VERTEX
  5
FE
  8
____________
 62
     0
 10
241.663589
 20
180.268554
 30
0.0
 42
0.14062
  0
VERTEX
  5
FF
  8
____________
 62
     0
 10
246.636433
 20
182.963424
 30
0.0
 42
0.213801
  0
VERTEX
  5
100
  8
____________
 62
     0
 10
249.30308
 20
190.047586
 30
0.0
 42
0.141353
  0
VERTEX
  5
101
  8
____________
 62
     0
 10
247.134166
 20
196.222172
 30
0.0
 42
0.018799
  0
VERTEX
  5
102
  8
____________
 62
     0
 10
246.46799
 20
197.118348
 30
0.0
 42
0.104393
  0
VERTEX
  5
103
  8
____________
 62
     0
 10
237.306979
 20
210.726557
 30
0.0
 42
0.150371
  0
VERTEX
  5
104
  8
____________
 62
     0
 10
215.098786
 20
222.257343
 30
0.0
 42
0.031552
  0
VERTEX
  5
105
  8
____________
 62
     0
 10
209.859973
 20
222.83227
 30
0.0
 42
0.088721
  0
VERTEX
  5
106
  8
____________
 62
     0
 10
186.625284
 20
227.889262
 30
0.0
 42
0.099072
  0
VERTEX
  5
107
  8
____________
 62
     0
 10
163.467426
 20
224.166592
 30
0.0
 42
0.038602
  0
VERTEX
  5
108
  8
____________
 62
     0
 10
161.837777
 20
223.459268
 30
0.0
 42
0.142851
  0
VERTEX
  5
109
  8
____________
 62
     0
 10
130.36904
 20
194.3383
 30
0.0
 42
0.078597
  0
VERTEX
  5
10A
  8
____________
 62
     0
 10
121.625014
 20
172.432442
 30
0.0
 42
0.129276
  0
VERTEX
  5
10B
  8
____________
 62
     0
 10
122.903431
 20
115.609898
 30
0.0
 42
0.172109
  0
VERTEX
  5
10C
  8
____________
 62
     0
 10
126.260575
 20
107.802379
 30
0.0
 42
0.134052
  0
VERTEX
  5
10D
  8
____________
 62
     0
 10
133.278398
 20
103.387374
 30
0.0
 42
0.054578
  0
VERTEX
  5
10E
  8
____________
 62
     0
 10
136.954696
 20
102.660455
 30
0.0
 42
-0.011259
  0
VERTEX
  5
10F
  8
____________
 62
     0
 10
176.892404
 20
103.793879
 30
0.0
 42
-0.005487
  0
VERTEX
  5
110
  8
____________
 62
     0
 10
217.852122
 20
103.655142
 30
0.0
 42
0.104305
  0
VERTEX
  5
111
  8
____________
 62
     0
 10
229.233375
 20
105.212066
 30
0.0
 42
0.13658
  0
VERTEX
  5
112
  8
____________
 62
     0
 10
238.985229
 20
112.084407
 30
0.0
 42
0.076362
  0
VERTEX
  5
113
  8
____________
 62
     0
 10
242.159919
 20
117.668438
 30
0.0
  0
SEQEND
  5
143
  8
____________
 62
     0
  0
POLYLINE
  5
57
  8
____________
 62
     0
 66
     1
 10
0.0
 20
0.0
 30
0.0
 70
     1
  0
VERTEX
  5
114
  8
____________
 62
     0
 10
301.412083
 20
104.581179
 30
0.0
 42
-0.138855
  0
VERTEX
  5
115
  8
____________
 62
     0
 10
298.774753
 20
107.304493
 30
0.0
 42
-0.074361
  0
VERTEX
  5
116
  8
____________
 62
     0
 10
288.733653
 20
123.736644
 30
0.0
 42
-0.088308
  0
VERTEX
  5
117
  8
____________
 62
     0
 10
284.360831
 20
142.704848
 30
0.0
 42
0.042329
  0
VERTEX
  5
118
  8
____________
 62
     0
 10
284.186467
 20
143.781267
 30
0.0
 42
-0.057089
  0
VERTEX
  5
119
  8
____________
 62
     0
 10
280.541099
 20
185.341354
 30
0.0
 42
-0.020894
  0
VERTEX
  5
11A
  8
____________
 62
     0
 10
281.604436
 20
200.194477
 30
0.0
 42
-0.113761
  0
VERTEX
  5
11B
  8
____________
 62
     0
 10
281.825928
 20
209.112895
 30
0.0
 42
-0.210745
  0
VERTEX
  5
11C
  8
____________
 62
     0
 10
290.87019
 20
220.391452
 30
0.0
 42
-0.104484
  0
VERTEX
  5
11D
  8
____________
 62
     0
 10
299.434177
 20
222.787482
 30
0.0
 42
-0.034017
  0
VERTEX
  5
11E
  8
____________
 62
     0
 10
341.26656
 20
224.057479
 30
0.0
 42
-0.02605
  0
VERTEX
  5
11F
  8
____________
 62
     0
 10
380.576827
 20
220.549495
 30
0.0
 42
-0.168763
  0
VERTEX
  5
120
  8
____________
 62
     0
 10
399.716552
 20
211.100508
 30
0.0
 42
-0.12186
  0
VERTEX
  5
121
  8
____________
 62
     0
 10
406.629237
 20
199.510916
 30
0.0
 42
-0.085722
  0
VERTEX
  5
122
  8
____________
 62
     0
 10
407.663635
 20
191.019628
 30
0.0
 42
-0.065368
  0
VERTEX
  5
123
  8
____________
 62
     0
 10
398.928091
 20
154.77397
 30
0.0
 42
-0.119999
  0
VERTEX
  5
124
  8
____________
 62
     0
 10
362.452118
 20
102.074509
 30
0.0
 42
-0.077818
  0
VERTEX
  5
125
  8
____________
 62
     0
 10
332.137219
 20
98.812417
 30
0.0
 42
-0.062364
  0
VERTEX
  5
126
  8
____________
 62
     0
 10
304.617173
 20
103.568543
 30
0.0
 42
-0.005767
  0
VERTEX
  5
127
  8
____________
 62
     0
 10
301.412083
 20
104.581179
 30
0.0
  0
SEQEND
  5
144
  8
____________
 62
     0
  0
POLYLINE
  5
6D
  8
____________
 62
     0
 66
     1
 10
0.0
 20
0.0
 30
0.0
 70
     1
  0
VERTEX
  5
128
  8
____________
 62
     0
 10
282.331698
 20
266.713533
 30
0.0
 42
0.152079
  0
VERTEX
  5
129
  8
____________
 62
     0
 10
285.888681
 20
259.578911
 30
0.0
 42
0.184826
  0
VERTEX
  5
12A
  8
____________
 62
     0
 10
295.469928
 20
254.870168
 30
0.0
 42
0.128463
  0
VERTEX
  5
12B
  8
____________
 62
     0
 10
301.512382
 20
255.878446
 30
0.0
 42
0.147441
  0
VERTEX
  5
12C
  8
____________
 62
     0
 10
305.897224
 20
259.713394
 30
0.0
 42
-0.078414
  0
VERTEX
  5
12D
  8
____________
 62
     0
 10
323.652689
 20
267.057001
 30
0.0
 42
-0.080183
  0
VERTEX
  5
12E
  8
____________
 62
     0
 10
346.169196
 20
268.730932
 30
0.0
 42
-0.091625
  0
VERTEX
  5
12F
  8
____________
 62
     0
 10
374.433811
 20
261.002068
 30
0.0
 42
-0.037744
  0
VERTEX
  5
130
  8
____________
 62
     0
 10
385.25877
 20
254.767003
 30
0.0
 42
0.164114
  0
VERTEX
  5
131
  8
____________
 62
     0
 10
393.281554
 20
254.116538
 30
0.0
 42
0.194588
  0
VERTEX
  5
132
  8
____________
 62
     0
 10
399.668021
 20
258.821647
 30
0.0
 42
0.209395
  0
VERTEX
  5
133
  8
____________
 62
     0
 10
400.707416
 20
267.034086
 30
0.0
 42
0.020582
  0
VERTEX
  5
134
  8
____________
 62
     0
 10
400.397286
 20
267.989286
 30
0.0
 42
-0.07119
  0
VERTEX
  5
135
  8
____________
 62
     0
 10
401.129799
 20
300.959404
 30
0.0
 42
-0.032208
  0
VERTEX
  5
136
  8
____________
 62
     0
 10
404.617179
 20
315.727191
 30
0.0
 42
0.129541
  0
VERTEX
  5
137
  8
____________
 62
     0
 10
404.848195
 20
339.565808
 30
0.0
 42
0.067504
  0
VERTEX
  5
138
  8
____________
 62
     0
 10
399.827799
 20
352.026266
 30
0.0
 42
0.111288
  0
VERTEX
  5
139
  8
____________
 62
     0
 10
380.089792
 20
370.926086
 30
0.0
 42
0.0858
  0
VERTEX
  5
13A
  8
____________
 62
     0
 10
359.270319
 20
379.065884
 30
0.0
 42
0.082547
  0
VERTEX
  5
13B
  8
____________
 62
     0
 10
333.565173
 20
380.866284
 30
0.0
 42
0.055918
  0
VERTEX
  5
13C
  8
____________
 62
     0
 10
317.42743
 20
377.456149
 30
0.0
 42
0.064628
  0
VERTEX
  5
13D
  8
____________
 62
     0
 10
291.557833
 20
366.299361
 30
0.0
 42
0.042054
  0
VERTEX
  5
13E
  8
____________
 62
     0
 10
277.742766
 20
356.36342
 30
0.0
 42
0.027317
  0
VERTEX
  5
13F
  8
____________
 62
     0
 10
277.575288
 20
311.968054
 30
0.0
 42
0.026074
  0
VERTEX
  5
140
  8
____________
 62
     0
 10
282.331698
 20
266.713533
 30
0.0
  0
SEQEND
  5
145
  8
____________
 62
     0
  0
ENDSEC
  0
EOF
