  0
SECTION
  2
HEADER
  9
$ACADVER
  1
AC1009
  9
$EXTMIN
 10
14.52076677
 20
0.00000000
 30
0.0
  9
$EXTMAX
 10
45.52715655
 20
59.94009585
 30
0.0
  0
ENDSEC
  0
SECTION
  2
TABLES
  0
TABLE
  2
LAYER
 70
1
 0
LAYER
 2
____________
 70
0
 62
18
 6
CONTINUOUS
 0
ENDTAB
 0
ENDSEC
  0
SECTION
  2
ENTITIES
  0
POLYLINE
  8
____________
 62
256
 66
   1
 39
0.000000
 70
    0
  0
VERTEX
  8
0
 10
34.26517572
 20
11.59744409
  0
VERTEX
  8
0
 10
25.68690096
 20
11.59744409
  0
VERTEX
  8
0
 10
25.31849042
 20
11.93889776
  0
VERTEX
  8
0
 10
25.30201677
 20
11.96435703
  0
VERTEX
  8
0
 10
25.30201677
 20
12.56789137
  0
VERTEX
  8
0
 10
25.11781150
 20
12.87040735
  0
VERTEX
  8
0
 10
24.87819489
 20
12.86142173
  0
VERTEX
  8
0
 10
23.84185304
 20
12.48402556
  0
VERTEX
  8
0
 10
22.14057508
 20
11.52555911
  0
VERTEX
  8
0
 10
20.89456869
 20
10.50718850
  0
VERTEX
  8
0
 10
19.85223642
 20
9.41693291
  0
VERTEX
  8
0
 10
19.63658147
 20
9.28514377
  0
VERTEX
  8
0
 10
19.31309904
 20
9.28514377
  0
VERTEX
  8
0
 10
18.94169329
 20
9.77635783
  0
VERTEX
  8
0
 10
17.45607029
 20
14.95207668
  0
VERTEX
  8
0
 10
14.61661342
 20
24.12939297
  0
VERTEX
  8
0
 10
14.52076677
 20
24.77635783
  0
VERTEX
  8
0
 10
14.52076677
 20
25.18370607
  0
VERTEX
  8
0
 10
15.76677316
 20
26.69329073
  0
VERTEX
  8
0
 10
16.96485623
 20
28.05910543
  0
VERTEX
  8
0
 10
17.18051118
 20
28.37060703
  0
VERTEX
  8
0
 10
17.18051118
 20
28.84984026
  0
VERTEX
  8
0
 10
16.95287540
 20
30.03594249
  0
VERTEX
  8
0
 10
16.70127796
 20
32.12060703
  0
VERTEX
  8
0
 10
16.58146965
 20
34.56469649
  0
VERTEX
  8
0
 10
16.66533546
 20
37.40415335
  0
VERTEX
  8
0
 10
16.98881789
 20
40.03993610
  0
VERTEX
  8
0
 10
17.31829073
 20
41.83706070
  0
VERTEX
  8
0
 10
17.93530351
 20
44.07747604
  0
VERTEX
  8
0
 10
18.50439297
 20
44.10143770
  0
SEQEND
  0
POLYLINE
  8
____________
 62
256
 66
   1
 39
0.000000
 70
    0
  0
VERTEX
  8
0
 10
17.93530351
 20
44.07747604
  0
VERTEX
  8
0
 10
18.63019169
 20
46.07827476
  0
VERTEX
  8
0
 10
19.34305112
 20
47.68370607
  0
VERTEX
  8
0
 10
20.41533546
 20
49.88817891
  0
VERTEX
  8
0
 10
21.99680511
 20
52.40415335
  0
VERTEX
  8
0
 10
24.10543131
 20
55.03993610
  0
VERTEX
  8
0
 10
25.85463259
 20
56.80111821
  0
VERTEX
  8
0
 10
28.07707668
 20
58.62220447
  0
VERTEX
  8
0
 10
29.18530351
 20
59.40095847
  0
VERTEX
  8
0
 10
29.91014377
 20
59.94009585
  0
VERTEX
  8
0
 10
30.09584665
 20
59.94009585
  0
VERTEX
  8
0
 10
31.35383387
 20
58.95766773
  0
VERTEX
  8
0
 10
32.45607029
 20
58.16693291
  0
VERTEX
  8
0
 10
34.10942492
 20
56.82507987
  0
VERTEX
  8
0
 10
35.39137380
 20
55.49520767
  0
VERTEX
  8
0
 10
36.76916933
 20
53.94968051
  0
VERTEX
  8
0
 10
38.11102236
 20
52.12859425
  0
VERTEX
  8
0
 10
39.65654952
 20
49.64856230
  0
VERTEX
  8
0
 10
40.68690096
 20
47.70766773
  0
VERTEX
  8
0
 10
41.78913738
 20
44.80830671
  0
VERTEX
  8
0
 10
42.62779553
 20
41.86102236
  0
VERTEX
  8
0
 10
42.62779553
 20
41.11821086
  0
SEQEND
  0
POLYLINE
  8
____________
 62
256
 66
   1
 39
0.000000
 70
    0
  0
VERTEX
  8
0
 10
42.62779553
 20
41.86102236
  0
VERTEX
  8
0
 10
42.79253195
 20
40.98791933
  0
VERTEX
  8
0
 10
43.20287540
 20
37.95527157
  0
VERTEX
  8
0
 10
43.32268371
 20
35.75079872
  0
VERTEX
  8
0
 10
43.32268371
 20
34.60063898
  0
VERTEX
  8
0
 10
43.32268371
 20
31.84504792
  0
VERTEX
  8
0
 10
43.08306709
 20
30.38338658
  0
VERTEX
  8
0
 10
42.74760383
 20
28.61022364
  0
VERTEX
  8
0
 10
43.03514377
 20
28.13099042
  0
VERTEX
  8
0
 10
45.43130990
 20
25.42332268
  0
VERTEX
  8
0
 10
45.52715655
 20
25.13578275
  0
VERTEX
  8
0
 10
45.52715655
 20
24.72843450
  0
VERTEX
  8
0
 10
45.20367412
 20
23.77595847
  0
VERTEX
  8
0
 10
44.65255591
 20
22.03274760
  0
VERTEX
  8
0
 10
42.62779553
 20
15.23961661
  0
VERTEX
  8
0
 10
40.92651757
 20
9.80031949
  0
VERTEX
  8
0
 10
40.68690096
 20
9.46485623
  0
VERTEX
  8
0
 10
40.23162939
 20
9.46485623
  0
VERTEX
  8
0
 10
39.34504792
 20
10.56709265
  0
VERTEX
  8
0
 10
38.24281150
 20
11.40575080
  0
VERTEX
  8
0
 10
37.21246006
 20
12.14856230
  0
VERTEX
  8
0
 10
35.75079872
 20
12.91533546
  0
VERTEX
  8
0
 10
35.07987220
 20
13.08306709
  0
VERTEX
  8
0
 10
34.62460064
 20
13.08306709
  0
VERTEX
  8
0
 10
34.62460064
 20
12.38817891
  0
VERTEX
  8
0
 10
34.62460064
 20
11.93290735
  0
VERTEX
  8
0
 10
34.26517572
 20
11.59744409
  0
VERTEX
  8
0
 10
25.68690096
 20
11.59744409
  0
SEQEND
  0
POLYLINE
  8
____________
 62
256
 66
   1
 39
0.000000
 70
    0
  0
VERTEX
  8
0
 10
26.35782748
 20
9.82428115
  0
VERTEX
  8
0
 10
26.35782748
 20
4.16932907
  0
SEQEND
  0
POLYLINE
  8
____________
 62
256
 66
   1
 39
0.000000
 70
    0
  0
VERTEX
  8
0
 10
29.95207668
 20
9.68051118
  0
VERTEX
  8
0
 10
30.00000000
 20
0.00000000
  0
SEQEND
  0
POLYLINE
  8
____________
 62
256
 66
   1
 39
0.000000
 70
    0
  0
VERTEX
  8
0
 10
33.83386581
 20
9.68051118
  0
VERTEX
  8
0
 10
33.83386581
 20
4.07348243
  0
SEQEND
  0
ENDSEC
  0
EOF
